{
  "routes": [
    {
      "method": "GET",
      "path": "/acls",
      "handler": "Acl.find",
      "config": {
        "policies": []
      }
    },
    {
      "method": "GET",
      "path": "/acls/count",
      "handler": "Acl.count",
      "config": {
        "policies": []
      }
    },
    {
      "method": "GET",
      "path": "/acls/:_id",
      "handler": "Acl.findOne",
      "config": {
        "policies": []
      }
    },
    {
      "method": "POST",
      "path": "/acls",
      "handler": "Acl.create",
      "config": {
        "policies": []
      }
    },
    {
      "method": "PUT",
      "path": "/acls/:_id",
      "handler": "Acl.update",
      "config": {
        "policies": []
      }
    },
    {
      "method": "DELETE",
      "path": "/acls/:_id",
      "handler": "Acl.destroy",
      "config": {
        "policies": []
      }
    }
  ]
}
