{
  "connection": "default",
  "collectionName": "stand",
  "info": {
    "name": "stand",
    "description": "Exposition Stand"
  },
  "options": {
    "timestamps": true
  },
  "attributes": {
    "name": {
      "type": "string"
    },
    "standNo": {
      "type": "string"
    },
    "cover": {
      "model": "file",
      "via": "related",
      "plugin": "upload"
    },
    "images": {
      "collection": "file",
      "via": "related",
      "plugin": "upload"
    },
    "address": {
      "type": "text"
    },
    "company": {
      "model": "company",
      "via": "stands"
    },
    "expo": {
      "model": "expo",
      "via": "stands"
    },
    "description": {
      "type": "text"
    },
    "introVideo": {
      "model": "file",
      "via": "related",
      "plugin": "upload"
    },
    "medias": {
      "collection": "contentmedia",
      "via": "stand"
    },
    "homes": {
      "collection": "home",
      "via": "stands"
    },
    "users": {
      "collection": "user",
      "via": "stands",
      "dominant": true,
      "plugin": "users-permissions"
    }
  }
}